8086/87/88/186 MACRO ASSEMBLER    MAIN                                                     13:40:25  12/10/;3  PAGE    1


DOS 5.0 (038-N) 8086/87/88/186 MACRO ASSEMBLER V3.1 ASSEMBLY OF MODULE MAIN
OBJECT MODULE PLACED IN MAIN.OBJ
ASSEMBLER INVOKED BY:  C:\UTIL\ASM86.EXE MAIN.ASM M1 EP DB


LOC  OBJ                  LINE     SOURCE

                             1             NAME    MAIN
                             2     
                             3     ;;;;;;;;;;;;;;;;;;;;;;;;;;;;;;;;;;;;;;;;;;;;;;;;;;;;;;;;;;;;;;;;;;;;;;;;;;;;;;
                             4     ;                                                                            ;
                             5     ;                                    MAIN                                    ;
                             6     ;                            Homework #7 Test Code                           ;
                             7     ;                                  EE/CS  51                                 ;
                             8     ;                                                                            ;
                             9     ;;;;;;;;;;;;;;;;;;;;;;;;;;;;;;;;;;;;;;;;;;;;;;;;;;;;;;;;;;;;;;;;;;;;;;;;;;;;;;
                            10     
                            11     ; Description:  This program tests the serial function of hw8.  The main
                            12     ;               loop initializes the parser, event handler and 
                            13     ;               calls the test code.       
                            14     ;
                            15     ; Revision History:
                            16     ;    12/07/13  Sith Domrongkitchaiporn  initial version
                            17     
                            18     CGROUP  GROUP   CODE
                            19     DGROUP  GROUP   STACK
                            20     
----                        21     CODE    SEGMENT PUBLIC 'CODE'
                            22     
                            23     
                            24             ASSUME  CS:CGROUP, DS:DGROUP
                            25     
                            26     ;external function declarations
                            27             EXTRN   InitINT2:NEAR
                            28             EXTRN   InitCS:NEAR
                            29             EXTRN   ClrIRQVectors:NEAR
                            30             EXTRN   ParseInit:NEAR
                            31             EXTRN   ParseTest:NEAR
                            32     
0000                        33     START:
                            34     
0000                        35     MAIN:
0000 FA                     36             CLI                             ;Clear any initial interrupts
0001 B8----         R       37             MOV     AX, STACK               ;initialize the stack pointer
0004 8ED0                   38             MOV     SS, AX
0006 BCE00190       R       39             MOV     SP, OFFSET(TopOfStack)
                            40             
000A B8----         R       41             MOV     AX, DGROUP              ; initialize the data segment
000D 8ED8                   42             MOV     DS, AX
                            43     
000F E80000         E       44             CALL    InitCS                  ;initialize the 80188 chip selects
                            45                                             ;   assumes LCS and UCS already setup
                            46     
0012 E80000         E       47             CALL    ClrIRQVectors           ;clear (initialize) interrupt vector table
                            48             
0015 E80000         E       49             CALL    InitInt2
                            50             
8086/87/88/186 MACRO ASSEMBLER    MAIN                                                     13:40:25  12/10/;3  PAGE    2


LOC  OBJ                  LINE     SOURCE

0018 E80000         E       51             CALL    ParseInit
                            52     
                            53             ;STI                             ;and finally allow interrupts.
                            54             
001B E80000         E       55             CALL    ParseTest               ;Call test code
                            56     
001E                        57     Forever:
001E EBFE                   58             JMP     Forever                 ;sit in an infinite loop, nothing to
                            59                                             ;   do in the background routine
0020 F4                     60             HLT                             ;never executed (hopefully)
                            61     
                            62     
                            63     
----                        64     CODE    ENDS
                            65     
                            66     
                            67     ; Stack
----                        68     STACK   SEGMENT STACK  'STACK'
                            69     
0000 (80                    70                     DB      80 DUP ('Stack ')       ;240 words
     537461636B20
     )
                            71     
01E0                        72     TopOfStack      LABEL   WORD
                            73     
----                        74     STACK   ENDS
                            75     
                            76     END     START   

ASSEMBLY COMPLETE, NO ERRORS FOUND
