8086/87/88/186 MACRO ASSEMBLER    DISPLAY                                                  12:57:21  01/06/;4  PAGE    1


DOS 5.0 (038-N) 8086/87/88/186 MACRO ASSEMBLER V3.1 ASSEMBLY OF MODULE DISPLAY
OBJECT MODULE PLACED IN DISPLAY.OBJ
ASSEMBLER INVOKED BY:  C:\UTIL\ASM86.EXE DISPLAY.ASM M1 EP DB


LOC  OBJ                  LINE     SOURCE

                             1     NAME    Display
                             2     
                             3     ;;;;;;;;;;;;;;;;;;;;;;;;;;;;;;;;;;;;;;;;;;;;;;;;;;;;;;;;;;;;;;;;;;;;;;;;;;;;;;
                             4     ;                                                                            ;
                             5     ;                                    Display                                 ;
                             6     ;                               Display Functions                            ;
                             7     ;                                   EE/CS 51                                 ;
                             8     ;                                                                            ;
                             9     ;;;;;;;;;;;;;;;;;;;;;;;;;;;;;;;;;;;;;;;;;;;;;;;;;;;;;;;;;;;;;;;;;;;;;;;;;;;;;;
                            10     
                            11     
                            12     ; DisplayInit:          Initializes the the two buffers, the counter, and clear
                            13     ;                       any LED segments that might be on.
                            14     ; Display:              Converts ASCII represented string to segments and
                            15     ;                       outputs to an array which is displayed
                            16     ; DisplayNum:           Displays a 16 bit signed value
                            17     ; DisplayHex:           Displays a 16 bit unsigned value   
                            18     ; DisplayMult:          Outputs a character in a LED block when an interrupt is 
                            19     ;                       received.  
                            20     ;
                            21     ; Revision History:
                            22     ;       11/08/13   Sith Domrongkitchaiporn   Initial Revision
                            23     ;       11/09/13   Sith Domrongkitchaiporn   Update DisplayInit and Display
                            24     ;       11/13/13   Sith Domrongkitchaiporn   Update comments
                            25     ;       12/15/13   Sith Domrongkitchaiporn   Save Register Value in DisplayMult 
                            26     ;      
                            27     CGROUP  GROUP   CODE
                            28     
----                        29     CODE    SEGMENT PUBLIC 'CODE'
                            30     
                            31             ASSUME  CS:CGROUP, DS:DATA
                            32     
                            33     EXTRN   Dec2String:NEAR
                            34     EXTRN   Hex2String:NEAR
                            35     EXTRN   ASCIISegTable:BYTE
                            36     
                            37 +1  $INCLUDE (Display.inc)
                      =1    38     ;;;;;;;;;;;;;;;;;;;;;;;;;;;;;;;;;;;;;;;;;;;;;;;;;;;;;;;;;;;;;;;;;;;;;;;;;;;;;;
                      =1    39     ;                                                                            ;
                      =1    40     ;                                Remote Eventh                               ;
                      =1    41     ;                            Remote Main Functions                           ;
                      =1    42     ;                                   EE/CS 51                                 ;
                      =1    43     ;                                                                            ;
                      =1    44     ;;;;;;;;;;;;;;;;;;;;;;;;;;;;;;;;;;;;;;;;;;;;;;;;;;;;;;;;;;;;;;;;;;;;;;;;;;;;;;
                      =1    45     ;
                      =1    46     ;
                      =1    47     ; Revision History:
                      =1    48     ;    12/14/13  Sith Domrongkitchaiporn  initial version
                      =1    49     ;
                      =1    50     
8086/87/88/186 MACRO ASSEMBLER    DISPLAY                                                  12:57:21  01/06/;4  PAGE    2


LOC  OBJ                  LINE     SOURCE

  0008                =1    51     SBUFFERLEN      EQU     8               ;There are 8 LED blocks
  0000                =1    52     SEG_SPACE       EQU     0               ;Blank Spaces
  0000                =1    53     ASCII_NULL      EQU     0               ;Null character
  0000                =1    54     DISPLAYPORT     EQU     00H             ;Display Port
                      =1    55     
  0008                =1    56     TIMEREOI        EQU     00008H
                      =1    57     
                      =1    58     ; Control Register Values
  0001                =1    59     TMRCONVAL       EQU     00001H          ;set priority for timers to 1 and enable
                      =1    60     
                      =1    61     
                      =1    62     ; Timing Definitions
  0900                =1    63     COUNTS_PER_MS   EQU     2304            ;number of timer counts per 1 ms
                      =1    64                                             ;(assumes 18.432 MHz clock)
  03E8                =1    65     FREQ            EQU     1000
  07D0                =1    66     T2CMPAVAL       EQU     COUNTS_PER_MS/FREQ * 1000  ;number of ms for each segment
                      =1    67     
                      =1    68     ; Chip Select Unit Definitions
                      =1    69     
                      =1    70     ; Addresses
  FFA4                =1    71     PACSreg         EQU     0FFA4H          ;address of PACS register
  FFA8                =1    72     MPCSreg         EQU     0FFA8H          ;address of MPCS register
                      =1    73     
                      =1    74     ; Control Register Values
  0003                =1    75     PACSval         EQU     00003H          ;PCS base at 0, 3 wait states
                      =1    76                                             ;0000000000------  starts at address 0
                      =1    77                                             ;----------000---  reserved
                      =1    78                                             ;-------------0--  wait for RDY inputs
                      =1    79                                             ;--------------11  3 wait states
  0183                =1    80     MPCSval         EQU     00183H          ;PCS in I/O space, use PCS5/6, 3 wait states
                      =1    81                                             ;0---------000---  reserved
                      =1    82                                             ;-0000001--------  MCS is 8KB
                      =1    83                                             ;--------1-------  output PCS5/PCS6
                      =1    84                                             ;---------0------  PCS in I/O space
                      =1    85                                             ;-------------0--  wait for RDY inputs
                      =1    86                                             ;--------------11  3 wait states
                      =1    87     
                      =1    88     ; Interrupt Vectors
  0013                =1    89     Tmr2Vec         EQU     19              ;interrupt vector for Timer 2
  000E                =1    90     Int2Vec         EQU     14              ;interrupt vector for INT2
  000E                =1    91     INT2EOI         EQU     14
                      =1    92     
                      =1    93     ; General Definitions
                      =1    94     
  0001                =1    95     FIRST_RESERVED_VEC          EQU     1       ;reserve vectors 1-3
  0003                =1    96     LAST_RESERVED_VEC           EQU     3
  0100                =1    97     NUM_IRQ_VECTORS         EQU     256     ;number of interrupt vectors
                      =1    98     
  0080                =1    99     LEDDisplay      EQU     0080H           ;display address
                      =1   100     
  0008                =1   101     NUM_DIGITS      EQU     8               ;number of digits in the display
                      =1   102     
                      =1   103     
                           104     
                           105     ;DisplayInit
8086/87/88/186 MACRO ASSEMBLER    DISPLAY                                                  12:57:21  01/06/;4  PAGE    3


LOC  OBJ                  LINE     SOURCE

                           106     ; Display
                           107     ;
                           108     ; Description:          This function initializes the counter and the arrays 
                           109     ;                       that are going to be use for displays.
                           110     ;
                           111     ; Operation:            This function sets the counter to 0 as the beginning.  
                           112     ;                       It then initializes the arrays by putting 0s in until 
                           113     ;                       all the arrays are filled.
                           114     ;
                           115     ; Arguments:            None
                           116     ;
                           117     ; Return Value:         None
                           118     ; Local Variables:      None
                           119     ; Shared Variables:     counter, segbuffer, decbuffer, hexbuffer, read/write
                           120     ;
                           121     ; Global Variables:     None
                           122     ; Input:                None
                           123     ; Output:               None
                           124     ; 
                           125     ; Error Handling:       None
                           126     ;
                           127     ; Algorithms:           None
                           128     ;
                           129     ; Data Structures:      None
                           130     ;
                           131     ; Limitations:          None
                           132     ;
                           133     ; Known Bugs:           None
                           134     ;
                           135     ; Registers Changed:    DX, AX
                           136     ; Stack Depth:          1 word
                           137     ;       
                           138     ; Author:               Sith Domrongkitchaiporn
                           139     ; Last Modified:        11/13/13
                           140     
                           141     
0000                       142     DisplayInit     PROC        NEAR
                           143                     PUBLIC      DisplayInit
                           144     
0000                       145     DisplayInitInit:
0000 53                    146             PUSH    BX
0001 C60600000090   R      147             MOV     counter, 0
0007 BB0000                148             MOV     BX, 0                           ;Set count = 0
000A BA0800                149             MOV     DX, 8                           ;Writing to port 8 which is not
000D B80000                150             MOV     AX, 0                           ;a display, but to remove strange
0010 EE                    151             OUT     DX, AL                          ;segments from lighting up
                           152     
0011                       153     DisplayInitLoop:
0011 80FB08                154             CMP     BL, SBUFFERLEN                  ;While counter < array length     
                           155             ;JB      DisplayInitZero                ;Continue filling array
0014 7310                  156             JAE     DisplayInitDone                 ;Otherwise, we're done
                           157     
0016                       158     DisplayInitZero:
0016 C68701000090   R      159             MOV     segbuffer[BX], 0                ;Set the array values to 0      
001C C68709000090   R      160             MOV     strbuffer[BX], 0                ;for initializing        
8086/87/88/186 MACRO ASSEMBLER    DISPLAY                                                  12:57:21  01/06/;4  PAGE    4


LOC  OBJ                  LINE     SOURCE

0022 FEC3                  161             INC     BL
0024 EBEB                  162             JMP     DisplayInitLoop                 ;Go back to check
                           163     
0026                       164     DisplayInitDone:
0026 5B                    165             POP     BX
0027 C3                    166             RET
                           167     
                           168     DisplayInit     ENDP
                           169     
                           170     
                           171     ; Display
                           172     ;
                           173     ; Description:          The function is passed a <null> terminated string (str) 
                           174     ;                       to output to the LED display.  The string is passed by 
                           175     ;                       reference in ES:SI.  Since ES is used, the string could 
                           176     ;                       be in the code segment.  The function figures out what 
                           177     ;                       to display for each character by looking up the display 
                           178     ;                       segment table.  The LED block will use a 7 segment 
                           179     ;                       display.  The text will be left justified.  If the 
                           180     ;                       string is longer than the number of LEDs, the LEDs will
                           181     ;                       only display the first 8.  If there's less, the rest of
                           182     ;                       the blocks will be blank.
                           183     ;
                           184     ; Operation:            This function converts the passed in string (str) to
                           185     ;                       be able to output to the LEDs.  The string has an ASCII 
                           186     ;                       representation and this function will look up the
                           187     ;                       display segment table and store it in an array.  If the
                           188     ;                       string is longer than 8 characters, the array will only 
                           189     ;                       contain the first 8.  If it is less than 8, the string 
                           190     ;                       will be left justified and the rest of the array will be
                           191     ;                       empty.
                           192     ;
                           193     ; Arguments:            None
                           194     ;
                           195     ; Return Value:         None
                           196     ; Local Variables:      None
                           197     ; Shared Variables:     Display arrays
                           198     ;
                           199     ; Global Variables:     None
                           200     ; Input:                None
                           201     ; Output:               None
                           202     ; 
                           203     ; Error Handling:       None
                           204     ;
                           205     ; Algorithms:           None
                           206     ;
                           207     ; Data Structures:      None
                           208     ;
                           209     ; Limitations:          Assumes pointer passed is valid.  Can only show 8 digits
                           210     ;
                           211     ; Known Bugs:           None
                           212     ;
                           213     ; Registers Changed:    None
                           214     ; Stack Depth:          3 words
                           215     ;       
8086/87/88/186 MACRO ASSEMBLER    DISPLAY                                                  12:57:21  01/06/;4  PAGE    5


LOC  OBJ                  LINE     SOURCE

                           216     ; Author:               Sith Domrongkitchaiporn
                           217     ; Last Modified:        11/13/13
                           218     
                           219     
0028                       220     Display         PROC        NEAR
                           221                     PUBLIC      Display
                           222     
0028                       223     DisplayLoopInit:
0028 50                    224             PUSH    AX                              ;Prevent Register Trashing
0029 53                    225             PUSH    BX
002A 51                    226             PUSH    CX
002B B90000                227             MOV     CX, 0                           ;Initialize length counter
                           228     
002E                       229     DisplayLoop:
002E 83F908                230             CMP     CX, SBUFFERLEN                  ;While counter < array length
                           231             ;JB      DisplayBufferInc                ;Continue filling array
0031 7329                  232             JAE     DisplayLoopDone                 ;Otherwise, we're done
                           233     
0033                       234     DisplayBufferInc:
0033 8BD9                  235             MOV     BX, CX
0035 268A00                236             MOV     AL, ES:[BX+SI]                  ;Put ASCII value in AL for XLAT      
                                     
0038 3C00                  237             CMP     AL, ASCII_NULL                  ;If Str has reach the end,      
003A 7410                  238             JE      DisplayNull                     ;Fill spaces
003C 8D1E0000       E      239             LEA     BX, ASCIISegTable               ;Set Offset of ASCIISegTable
0040 2ED7                  240             XLAT    ASCIISegTable                   ;Look up in segment table for
                           241                                                     ;ASCII value
0042 8BD9                  242             MOV     BX, CX                          ;BL is used for indexing
0044 88870100       R      243             MOV     segbuffer[BX], AL               ;Put segment value into array
0048 FEC1                  244             INC     CL
004A EBE2                  245             JMP     DisplayLoop                     ;Loop to check if array is full    
                           246     
004C                       247     DisplayNull:
004C 83F908                248             CMP     CX, SBUFFERLEN                  ;While counter < array length
                           249             ;JB      DisplayNullLoop                ;Add spaces
004F 730B                  250             JAE     DisplayLoopDone                 ;Otherwise, we're done
                           251     
0051                       252     DisplayNullLoop:
0051 8BD9                  253             MOV     BX, CX                          ;BX is used for indexing             
                                                
0053 C68701000090   R      254             MOV     segbuffer[BX], SEG_SPACE        ;fill array with spaces
0059 41                    255             INC     CX
005A EBF0                  256             JMP     DisplayNull 
                           257     
005C                       258     DisplayLoopDone:
005C 59                    259             POP     CX                              ;Put back old registers value
005D 5B                    260             POP     BX
005E 58                    261             POP     AX
005F C3                    262             RET
                           263     
                           264     Display         ENDP
                           265     
                           266     
                           267     ; DisplayNum
                           268     ;
8086/87/88/186 MACRO ASSEMBLER    DISPLAY                                                  12:57:21  01/06/;4  PAGE    6


LOC  OBJ                  LINE     SOURCE

                           269     ; Description:          The function is passed a 16-bit signed value (n) to 
                           270     ;                       output in decimal (Exactly 5 digits plus sign) to the 
                           271     ;                       LED display. The number (n) is passed in AX by value.  
                           272     ;                       The sign will be the at the front of the string and 
                           273     ;                       the text will be left justified.  The rest of the
                           274     ;                       display will be blank.          
                           275     ;
                           276     ; Operation:            This function calls the Dec2String function to convert
                           277     ;                       the passed in 16-bit signed value (n) into it's ASCII
                           278     ;                       representation.  Once this is done, this function will
                           279     ;                       call display to convert the ASCII representations to 
                           280     ;                       display segments.
                           281     ;
                           282     ; Arguments:            n (AX) - 16 bit signed value
                           283     ;
                           284     ; Return Value:         None
                           285     ; Local Variables:      array address
                           286     ; Shared Variables:     Array
                           287     ;
                           288     ; Global Variables:     None
                           289     ; Input:                None
                           290     ; Output:               None
                           291     ; 
                           292     ; Error Handling:       None
                           293     ;
                           294     ; Algorithms:           None
                           295     ;
                           296     ; Data Structures:      None
                           297     ;
                           298     ; Limitations:          Assumes pointer passed is valid.  Can only show 8 digits
                           299     ;
                           300     ; Known Bugs:           None
                           301     ;
                           302     ; Registers Changed:    ES
                           303     ; Stack Depth:          3 words
                           304     ;       
                           305     ; Author:               Sith Domrongkitchaiporn
                           306     ; Last Modified:        11/13/13
                           307     
                           308     
0060                       309     DisplayNum      PROC        NEAR
                           310                     PUBLIC      DisplayNum
                           311     
0060                       312     DisplayNumDo:
0060 56                    313             PUSH    SI                              ;Prevent register trashing
0061 8D360900       R      314             LEA     SI, strbuffer                   ;Use strbuffer for Dec2String
0065 56                    315             PUSH    SI
0066 E80000         E      316             Call    Dec2String                      ;Call conversion function
0069 5E                    317             POP     SI                              
006A 1E                    318             PUSH    DS                              ;Put value of DS into ES since
006B 07                    319             POP     ES                              ;Display takes the adddress ES
006C E8B9FF                320             Call    Display
006F 5E                    321             POP     SI                              ;Get back old register value
0070 C3                    322             RET
                           323     
8086/87/88/186 MACRO ASSEMBLER    DISPLAY                                                  12:57:21  01/06/;4  PAGE    7


LOC  OBJ                  LINE     SOURCE

                           324     DisplayNum      ENDP
                           325     
                           326     ;-----------------
                           327     
                           328     ; DisplayHex
                           329     ;
                           330     ; Description:          The function is passed a 16-bit value (n) to output in 
                           331     ;                       hexadecimal (exactly 4 digits) to the LED display. The 
                           332     ;                       number (n) is passed in AX by value.  The text will be
                           333     ;                       left justified.  The rest of the LEd will be blanks.         
                                    
                           334     ;
                           335     ; Operation:            This function calls the Dec2String function to convert
                           336     ;                       the passed in 16-bit signed value (n) into it's ASCII
                           337     ;                       representation.  Once this is done, this function will
                           338     ;                       call display to convert the ASCII representations to 
                           339     ;                       display segments.
                           340     ;
                           341     ; Arguments:            n (AX) - 16 bit unsigned value
                           342     ;
                           343     ; Return Value:         None
                           344     ; Local Variables:      array address
                           345     ; Shared Variables:     array
                           346     ;
                           347     ; Global Variables:     None
                           348     ; Input:                None
                           349     ; Output:               None
                           350     ; 
                           351     ; Error Handling:       None
                           352     ;
                           353     ; Algorithms:           None
                           354     ;
                           355     ; Data Structures:      None
                           356     ;
                           357     ; Limitations:          Assumes pointer passed is valid.  Can only show 8 digits
                           358     ;
                           359     ; Known Bugs:           None
                           360     ;
                           361     ; Registers Changed:    ES
                           362     ; Stack Depth:          3 words
                           363     ;       
                           364     ; Author:               Sith Domrongkitchaiporn
                           365     ; Last Modified:        11/13/13
                           366     
                           367     
0071                       368     DisplayHex      PROC        NEAR
                           369                     PUBLIC      DisplayHex
                           370     
0071                       371     DisplayHexDo:
0071 56                    372             PUSH    SI                              ;Prevent regiser trashing
0072 8D360900       R      373             LEA     SI, strbuffer
0076 56                    374             PUSH    SI
0077 E80000         E      375             Call    Hex2String                      ;Call conversion function
007A 5E                    376             POP     SI
007B 1E                    377             PUSH    DS
8086/87/88/186 MACRO ASSEMBLER    DISPLAY                                                  12:57:21  01/06/;4  PAGE    8


LOC  OBJ                  LINE     SOURCE

007C 07                    378             POP     ES
007D E8A8FF                379             Call    Display                         
0080 5E                    380             POP     SI                              ;Get old register value
0081 C3                    381             RET
                           382     
                           383     DisplayHex      ENDP
                           384     
                           385     ;---------------------
                           386     
                           387     ; DisplayMult
                           388     ;
                           389     ; Description:          The function displays a character on the correct digit
                           390     ;                       of the LED block.  This function will rely on a timer
                           391     ;                       register to call it.  It determines the correct digit to
                           392     ;                       show by looking up the variable counter.        
                           393     ;
                           394     ; Operation:            Every time the timer reaches max count.  This function
                           395     ;                       will be called to increment the counter and display the
                           396     ;                       the correct character on the correct LED block.  The
                           397     ;                       counter is used to determine where the character will be
                           398     ;                       and on the LED block and what to display.
                           399     ;
                           400     ; Arguments:            None
                           401     ;
                           402     ; Return Value:         None
                           403     ; Local Variables:      None
                           404     ; Shared Variables:     None
                           405     ;
                           406     ; Global Variables:     None
                           407     ; Input:                None
                           408     ; Output:               A digit on the LED
                           409     ; 
                           410     ; Error Handling:       None
                           411     ;
                           412     ; Algorithms:           Array wrapping.  counter + 1 AND length - 1 
                           413     ;                       We assume 2^n length.
                           414     ;
                           415     ; Data Structures:      None
                           416     ;
                           417     ; Limitations:          Can only show 8 digits
                           418     ;
                           419     ; Known Bugs:           None
                           420     ;
                           421     ; Registers Changed:    None
                           422     ; Stack Depth:          None
                           423     ;       
                           424     ; Author:               Sith Domrongkitchaiporn
                           425     ; Last Modified:        12/15/13
                           426     
0082                       427     DisplayMult     PROC    NEAR
                           428                     PUBLIC  DisplayMult
                           429     
0082                       430     DisplayMultInit:
0082 50                    431             PUSH    AX                              ;Prevent register trashing
0083 53                    432             PUSH    BX
8086/87/88/186 MACRO ASSEMBLER    DISPLAY                                                  12:57:21  01/06/;4  PAGE    9


LOC  OBJ                  LINE     SOURCE

0084 52                    433             PUSH    DX                
0085 8D1E0100       R      434             LEA     BX, segbuffer                   ;Use segbuffer as start address
0089 021E0000       R      435             ADD     BL, counter
                           436     
008D                       437     DisplayMultLED:
008D BA0000                438             MOV     DX, DISPLAYPORT                 ;Outputting to display port
0090 02160000       R      439             ADD     DL, counter
0094 8B07                  440             MOV     AX, [BX]
                           441             
0096 EE                    442             OUT     DX, AL
                           443     
0097                       444     EndDisplayMult:                                 ;Array wrapping algorithm
0097 FE060000       R      445             INC     counter
009B 802600000790   R      446             AND     counter, SBUFFERLEN-1           ;We are using 2^n array length
00A1 5A                    447             POP     DX                              ;Get back old register value
00A2 5B                    448             POP     BX
00A3 58                    449             POP     AX
00A4 C3                    450             RET
                           451         
                           452     DisplayMult   ENDP
                           453     
----                       454     CODE    ENDS
                           455     
                           456     ; Data
----                       457     DATA    SEGMENT PUBLIC  'DATA'
                           458     
0000 ??                    459     counter         DB    ?                         ;Points to position of array
0001 (8                    460     segbuffer       DB SBUFFERLEN DUP (?)           ;Array for strings for display
     ??
     )
0009 (8                    461     strbuffer       DB SBUFFERLEN DUP (?)           ;Array for Dec2String/Hex2String
     ??
     )
                           462     
----                       463     DATA ENDS
                           464     
                           465     
                           466     END

ASSEMBLY COMPLETE, NO ERRORS FOUND
