8086/87/88/186 MACRO ASSEMBLER    DEC2STRING                                               17:24:43  12/14/;3  PAGE    1


DOS 5.0 (038-N) 8086/87/88/186 MACRO ASSEMBLER V3.1 ASSEMBLY OF MODULE DEC2STRING
OBJECT MODULE PLACED IN CONVERTS.OBJ
ASSEMBLER INVOKED BY:  C:\UTIL\ASM86.EXE CONVERTS.ASM M1 EP DB


LOC  OBJ                  LINE     SOURCE

                             1             NAME    Dec2String
                             2     
                             3     ;;;;;;;;;;;;;;;;;;;;;;;;;;;;;;;;;;;;;;;;;;;;;;;;;;;;;;;;;;;;;;;;;;;;;;;;;;;;;;
                             4     ;                                                                            ;
                             5     ;                                   CONVERTS                                 ;
                             6     ;                             Conversion Functions                           ;
                             7     ;                                   EE/CS 51                                 ;
                             8     ;                                                                            ;
                             9     ;;;;;;;;;;;;;;;;;;;;;;;;;;;;;;;;;;;;;;;;;;;;;;;;;;;;;;;;;;;;;;;;;;;;;;;;;;;;;;
                            10     
                            11     
                            12     ; Number Conversions for RoboTrike
                            13     ; - Dec2String - Converts a signed number into its decimal ASCII representation 
                            14     ; - Hex2String - Converts an unsigned number to its hexadecimal 
                            15     ;                ASCII represetation
                            16     ;
                            17     ; Revision History:
                            18     ;    10/23/13  Sith Domrongkitchaiporn  initial version
                            19     ;    10/24/13  Sith Domrongkitchaiporn  fix syntax      
                            20     ;    10/25/13  Sith Domrongkitchaiporn  fix formatting
                            21     
                            22     CGROUP  GROUP   CODE
                            23     
                            24     
----                        25     CODE    SEGMENT PUBLIC 'CODE'
                            26     
                            27     
                            28             ASSUME  CS:CGROUP
                            29     
                            30 +1  $INCLUDE (Converts.inc)
                      =1    31     ;;;;;;;;;;;;;;;;;;;;;;;;;;;;;;;;;;;;;;;;;;;;;;;;;;;;;;;;;;;;;;;;;;;;;;;;;;;;;;
                      =1    32     ;                                                                            ;
                      =1    33     ;                                   CONVERTS                                 ;
                      =1    34     ;                             Conversion Functions                           ;
                      =1    35     ;                                   EE/CS 51                                 ;
                      =1    36     ;                                                                            ;
                      =1    37     ;;;;;;;;;;;;;;;;;;;;;;;;;;;;;;;;;;;;;;;;;;;;;;;;;;;;;;;;;;;;;;;;;;;;;;;;;;;;;;
                      =1    38     ;
                      =1    39     ;
                      =1    40     ; Revision History:
                      =1    41     ;    10/23/13  Sith Domrongkitchaiporn  initial version
                      =1    42     ;
                      =1    43     ; Constants
  0000                =1    44     ASCII_ZERO EQU 0
                            45     
                            46     ; Dec2String
                            47     ;
                            48     ; Description:          This function converts the number n to a string
                            49     ;                       containing its decimal representation stored at a.  The 
                            50     ;                       output string will have a sign in front.  There will be 
8086/87/88/186 MACRO ASSEMBLER    DEC2STRING                                               17:24:43  12/14/;3  PAGE    2


LOC  OBJ                  LINE     SOURCE

                            51     ;                       zero padding if needed.  The output will have 7 bytes, 
                            52     ;                       all in ASCII.  The digits are stored from bottom to top 
                            53     ;                       of memory.
                            54     ;
                            55     ; Operation:            The function is passed a 16-bit signed value(n) to 
                            56     ;                       convert to decimal (at most 5 digits plus (sign) and 
                            57     ;                       store as a string.  The sign is stored first while each 
                            58     ;                       of the digits is determined by taking the quotient of a 
                            59     ;                       division by powers of 10.  This continues by doing the 
                            60     ;                       same thing to the remainder with the next lower power of
                            61     ;                       10.  If quotient is 0, 0 will be stored.  Once all the 
                            62     ;                       digits are stored, <null> terminate will be input into
                            63     ;                       the string.  The resulting string is stored starting at 
                            64     ;                       the memory location indicated by the passed address(a).
                            65     ;                       The number is passed AX by value.  The address(a) is 
                            66     ;                       passed in SI by value and the string is written to 
                            67     ;                       memory starting at DS:SI.  
                            68     ;
                            69     ; Arguments:            n (AX) - 16 bit signed value
                            70     ;                       a (SI) - address
                            71     ;
                            72     ; Return Value:         None
                            73     ;
                            74     ; Local Variables:      Position
                            75     ;                       Power
                            76     ;                       Quotient
                            77     ; Shared Variables:     None
                            78     ; Global Variables:     None
                            79     ;
                            80     ; Input:                None
                            81     ; Output:               String in Memory
                            82     ;
                            83     ; Error Handling:       None
                            84     ;
                            85     ; Algorithms:           If the number has 1 on the top bit, we need to store a 
                            86     ;                       -ve sign in memory and continue to treat the number 
                            87     ;                       as +ve.  If the top bit is zero, we store a +ve sign and
                            88     ;                       nothing else.
                            89     ;
                            90     ; Data Structures:      None
                            91     ;
                            92     ; Limitations:          Assumes pointer passed is valid.
                            93     ;
                            94     ; Known Bugs:           None
                            95     ;
                            96     ; Registers Changed:    AX, BX, CX, DX, SI
                            97     ; Stack Depth:          0
                            98     ;
                            99     ; Author:               Sith Domrongkitchaiporn
                           100     ; Last Modified:        10/23/13
                           101     ;
                           102     ; Pseudo Code
                           103     ; n, a;                                 // Arguments
                           104     ; position = 0;                         // Place to put in memory
                           105     ; power = 10000;                                        
8086/87/88/186 MACRO ASSEMBLER    DEC2STRING                                               17:24:43  12/14/;3  PAGE    3


LOC  OBJ                  LINE     SOURCE

                           106     ;
                           107     ; if (n < 0) {                          // If n is -ve, we still treat n as +ve
                           108     ;       n = -n;
                           109     ;       a[position] = '-';              // Input a -ve sign into memory
                           110     ; }
                           111     ; else{
                           112     ;       a[position] = '+';              // If n is positive, input '+' in memory
                           113     ; }
                           114     ; position++;                                           
                           115     ; while (power > 0) {                   // Continue loop until we divide every 
                           116     ;                                       // digit.
                           117     ;       quotient = n/power;
                           118     ;       n = n mod power;                // n is now the remainder after division
                           119     ;       a[position] = quotient + '0';
                           120     ;       power = power/10;                                    
                           121     ;       position++;
                           122     ; }
                           123     ; a[position] = <null>;                 // Null terminate after all digits are
                           124     ;                                       // input
                           125     
                           126     
0000                       127     Dec2String      PROC        NEAR
                           128                     PUBLIC      Dec2String
                           129     
0000                       130     Dec2StringInit:                         ; Initializing
0000 BB1027                131             MOV     BX, 10000               ; Start power of 10 or Divisor
                           132             ;JMP    Dec2StringChk
                           133     
0003                       134     Dec2StringChk:
0003 A90080                135             TEST    AX, 8000H               ; Check to see if number is -ve
                           136             ;JE     PositiveNum             ; If number is +ve, go to PositiveNum
0006 7507                  137             JNZ     NegativeNum             ; If -ve, process in NegativeNum
                           138     
0008                       139     PositiveNum:                            ; If number is +ve,
0008 C6042B                140             MOV     byte ptr[SI], '+'       ; put '+' sign in memory
000B 46                    141             INC     SI                      ; Put pointer at next memory
000C EB0790                142             JMP     DecLoopPowerChk
                           143     
000F                       144     NegativeNum:                            ; If number is -ve,
000F C6042D                145             MOV     byte ptr[SI], '-'       ; put '-' sign in memory
0012 46                    146             INC     SI                      ; Put pointer at next memory
0013 F7D8                  147             NEG     AX                      ; Make input number a +ve number
                           148             ;JMP    DecLoopPowerChk
                           149             
0015                       150     DecLoopPowerChk:                                 
0015 83FB00                151             CMP     BX, 0                   ; While Power > 0
0018 7E1D                  152             JLE     Dec2StringEnd           ; If Power < 0, we're done
                           153             ;JG     DigitSelectLoop         ; Otherwise, continue to get digits
                           154     
001A                       155     DigitSelectLoop:
001A BA0000                156             MOV     DX, 0                   ; Clear DX
001D F7F3                  157             DIV     BX                      ; Divide n by power for digit
001F 053000                158             ADD     AX, '0'                 ; '0' is for ASCII      
0022 8804                  159             MOV     byte ptr[SI], AL        ; Put quotient in memory
0024 8BCA                  160             MOV     CX, DX                  ; Put remainder in a holder 
8086/87/88/186 MACRO ASSEMBLER    DEC2STRING                                               17:24:43  12/14/;3  PAGE    4


LOC  OBJ                  LINE     SOURCE

0026 8BC3                  161             MOV     AX, BX                  ; Move power into AX for division
0028 BB0A00                162             MOV     BX, 10                  ; We need to lessen the power, so
002B BA0000                163             MOV     DX, 0                   ; Clear DX
002E F7F3                  164             DIV     BX                      ; Divide power by 10 for next round
0030 8BD8                  165             MOV     BX, AX                  ; Put next divisor in Power
0032 8BC1                  166             MOV     AX, CX                  ; Put remainder as new n
0034 46                    167             INC     SI                      ; Puts pointer at next memory position
0035 EBDE                  168             JMP     DecLoopPowerChk         ; Goes to Check if done         
                           169     
0037                       170     Dec2StringEnd:                          ; Once Done
0037 C60400                171             MOV     byte ptr[SI], ASCII_ZERO; Null Terminate the String
003A C3                    172             RET
                           173             
                           174     Dec2String      ENDP
                           175     
                           176     
                           177     
                           178     
                           179     ; Hex2String
                           180     ;
                           181     ; Description:          This function converts the number n to a string
                           182     ;                       containing its hexadecimal representation stored at a.
                           183     ;                       There will be zero padding if needed.  The output will 
                           184     ;                       have 7 bytes, all in ASCII.  The digits are stored from 
                           185     ;                       bottom to top of memory.
                           186     ;
                           187     ; Operation:            The function is passed a 16-bit unsigned value(n) to 
                           188     ;                       convert to hexadecimal (at most 5 digits plus and 
                           189     ;                       store as a string.  The sign is stored first while each 
                           190     ;                       of the digits is determined by taking the quotient of a 
                           191     ;                       division by powers of 10H.  This continues by doing the 
                           192     ;                       same thing to the remainder with the next lower power of
                           193     ;                       10H.  If quotient is 0, 0 will be stored.  Once all the 
                           194     ;                       digits are stored, <null> terminate will be input into
                           195     ;                       the string.  The resulting string is stored starting at 
                           196     ;                       the memory location indicated by the passed address(a).
                           197     ;                       The number is passed AX by value.  The address(a) is 
                           198     ;                       passed in SI by value and the string is written to 
                           199     ;                       memory starting at DS:SI.
                           200     ;
                           201     ; Arguments:            n (AX) - 16 bit unsigned value
                           202     ;                       a (SI) - address
                           203     ; Return Value:         None
                           204     ;
                           205     ; Local Variables:
                           206     ; Shared Variables:     None
                           207     ; Global Variables:     None
                           208     ;
                           209     ; Input:                None
                           210     ; Output:               String in Memory
                           211     ;
                           212     ; Error Handling:       None
                           213     ;
                           214     ; Algorithms:           None            
                           215     ; Data Structures:      None
8086/87/88/186 MACRO ASSEMBLER    DEC2STRING                                               17:24:43  12/14/;3  PAGE    5


LOC  OBJ                  LINE     SOURCE

                           216     ;
                           217     ; Registers Changed: AX, Bx, CX, DX, SI
                           218     ; Stack Depth:
                           219     ;
                           220     ; Author:               Sith Domrongkitchaiporn
                           221     ; Last Modified:        10/23/13
                           222     ;
                           223     ; Pseudo Code
                           224     ; n, a;                                 // Arguments
                           225     ; position = 0;                         // Place to put in memory
                           226     ; power = 1000H;                                        
                           227     ;
                           228     ; while (power > 0) {                   // Continue loop until we divide every
                           229     ;       quotient = n/power;             // digit
                           230     ;       n = n mod power;                // n is now the remainder after division
                           231     ;                                       
                           232     ;       if (quotient > 9) {             // Store A - F instead of 10-15 
                           233     ;               a[position] = quotient - 10 + 'A';  
                           234     ;       }
                           235     ;       else {                          // Store input from 0-9
                           236     ;               a[position] = quotient + '0';       
                           237     ;       }
                           238     ;       power = power/10H;                                   
                           239     ;       position++;
                           240     ; }
                           241     ; a[position] = <null>;                 // Null terminate after all digits are 
                           242     ;                                       // input
                           243     
003B                       244     Hex2String      PROC        NEAR
                           245                     PUBLIC      Hex2String
                           246     
003B                       247     Hex2StringInit:                         ; Initializing
003B BB0010                248             MOV     BX, 1000H               ; Start power of 10 or Divisor
                           249             ;JMP    HexLoopPowerChk
                           250     
003E                       251     HexLoopPowerChk:                                 
003E 83FB00                252             CMP     BX, 0                   ; While Power > 0
0041 7E2D                  253             JLE     Hex2StringEnd           ; If Power < 0, we're done
                           254             ;JG     DigitLoop               ; Otherwise, continue to get digits
                           255     
0043                       256     DigitLoop:
0043 BA0000                257             MOV     DX, 0                   ; Clear DX
0046 F7F3                  258             DIV     BX                      ; Divide n by power for digit
0048 3D0900                259             CMP     AX, 9                   ; If the digit is < = 9,
                           260             ;JLE    LessThanTen             ; Input is 0-9
004B 7F08                  261             JG      MoreThanNine            ; Otherwise, input is A-F       
                           262     
004D                       263     LessThanTen:                            ; 0-9 can be put into memory normally
004D 053000                264             ADD     AX, '0'                 ; '0' is for ASCII                      
0050 8904                  265             MOV     [SI], AX                ; Put quotient in memory normally
0052 EB0990                266             JMP     ResetLoop
                           267     
0055                       268     MoreThanNine:                           ; Since 10H is represented with A
0055 2D0A00                269             SUB     AX, 10                  ; We need to make 10 the first from A-F
0058 054100                270             ADD     AX, 'A'                 ; 'A' is for ASCII
8086/87/88/186 MACRO ASSEMBLER    DEC2STRING                                               17:24:43  12/14/;3  PAGE    6


LOC  OBJ                  LINE     SOURCE

005B 8804                  271             MOV     byte ptr[SI], AL        ; Input in memory
                           272             ;JMP    ResetLoop
                           273     
005D                       274     ResetLoop:
005D 8BCA                  275             MOV     CX, DX                  ; Put remainder in a holder 
005F 8BC3                  276             MOV     AX, BX                  ; Move power into AX for division
0061 BB1000                277             MOV     BX, 10H                 ; We need to lessen the power, so
0064 BA0000                278             MOV     DX, 0                   ; Clear DX
0067 F7F3                  279             DIV     BX                      ; Divide power by 10H for next round
0069 8BD8                  280             MOV     BX, AX                  ; Put next divisor in Power
006B 8BC1                  281             MOV     AX, CX                  ; Put remainder as new n
006D 46                    282             INC     SI                      ; Puts pointer at next memory position
006E EBCE                  283             JMP     HexLoopPowerChk         ; Goes to Check if done         
                           284     
0070                       285     Hex2StringEnd:                          ; Once Done
0070 C60400                286             MOV     byte ptr[SI], ASCII_ZERO; Null Terminate the String
0073 C3                    287             RET
                           288     
                           289     Hex2String      ENDP
                           290     
                           291     
                           292     
----                       293     CODE    ENDS
                           294     
                           295     
                           296     
                           297             END

ASSEMBLY COMPLETE, NO ERRORS FOUND
